{
  "parent": "endrem:main/root",
  "display": {
    "icon": {
      "item": "endrem:core"
    },
    "title": {
      "translate": "advancements.main.core.title"
    },
    "description": {
      "translate": "advancements.main.core.description"
    },
    "frame": "task",
    "show_toast": true,
    "announce_to_chat": true,
    "hidden": false
  },
  "criteria": {
    "core": {
      "trigger": "minecraft:inventory_changed",
      "conditions": {
        "items": [
          {
            "item": "endrem:core"
          }
        ]
      }
    }
  },
  "requirements": [
    [
      "core"
    ]
  ]
}