{
    "pools": [{
        "name": "eye_pool",
        "rolls": 3,
        "entries": [
            {
                "type": "item",
                "name": "endrem:corrupted_pearl",
                "weight": 2,
                "functions": [{ "function": "set_count", "count": 1 }]
            },
            {
                "type": "empty",
                "weight": 3
            }
        ]
    }]
}