{
  "type": "minecraft:crafting_shaped",
  "pattern":
  [
    "ccc",
    "c c"
  ],
  "key":
  {
    "c":
    {
      "item": "endrem:end_crystal_fragment"
    }
  },
  "result":
  {
    "item": "endrem:end_crystal_helmet",
    "count": 1
  }
}