{
    "pools": [{
        "name": "eye_pool",
        "rolls": 1,
        "entries": [
            {
                "type": "item",
                "name": "endrem:guardian_pearl"
            }
        ]
    }]
}